Do eduation effect their salary in IT area? – Dailyblog
…
print(summary_stats)

# A tibble: 21 × 7
   Education     Count Mean_Salary Median_Salary Min_Salary Max_Salary SD_Salary
   <chr>         <int>       <dbl>         <dbl>      <dbl>      <dbl>     <dbl>
 1 Mtech             5    2086150.      2239942     1590856    2418385   361369.
 2 B.PHARMACY        5    1979655.      2076047     1684091    2195626   203780.
 3 BJMC              8    1846517.      1893824      887682    2489343   573794.
 4 LLB              11    1815877.      1962283     1006036    2466419   546251.
 5 B.Des.            8    1696488.      1767394.    1038609    2107011   357341.
 6 bachelor of …     2    1637977       1637977      959279    2316675   959824.
 7 B.Pharma          5    1542135.      1475416      539149    2314053   757287.
 8 Diploma         147    1534798.      1499244      512503    2493345   597248.
 9 BTECH             5    1517533       1783567      558228    2152921   623500.
10 B.A             351    1510029.      1510050      502689    2497196   576255.
# ℹ 11 more rows
…
